{
	"id": "b6a2064a-cbd9-455e-9a49-a01d1e4a4359",
	"name": "Work with API",
	"values": [
		{
			"key": "api_key",
			"value": "PMAK-5f0ef7a23a9cdb0035575857-3b4eeb7181e262d70a95a2532509402573",
			"enabled": true
		},
		{
			"key": "id",
			"value": "",
			"enabled": true
		},
		{
			"key": "firstname",
			"value": "empty",
			"enabled": true
		},
		{
			"key": "lastname",
			"value": "empty",
			"enabled": true
		}
	],
	"_postman_variable_scope": "environment",
	"_postman_exported_at": "2020-07-16T13:09:47.331Z",
	"_postman_exported_using": "Postman/7.28.0"
}